<?xml version="1.0" encoding="utf-8"?>
<!-- Generator: Adobe Illustrator 19.2.1, SVG Export Plug-In . SVG Version: 6.00 Build 0)  -->
<svg version="1.1" id="Layer_1" xmlns="http://www.w3.org/2000/svg" xmlns:xlink="http://www.w3.org/1999/xlink" x="0px" y="0px"
	 viewBox="0 0 70 70" style="enable-background:new 0 0 70 70;" xml:space="preserve">
<!-- style type="text/css">
	.st0{clip-path:url(#SVGID_2_);fill:#1A2857;}
</style -->
<g>
	<defs>
		<rect id="SVGID_1_" x="3.4" y="7.1" width="63.2" height="55.8"/>
	</defs>
	<clipPath id="SVGID_2_">
		<use xlink:href="#SVGID_1_"  style="overflow:visible;"/>
	</clipPath>
	<path class="st0" d="M22.2,24.9c-1.6,1.6-2.4,3.7-2.4,5.9c0,2.2,0.9,4.3,2.4,5.9l7.9,7.9c1.6,1.6,3.8,2.4,5.9,2.4
		c2.1,0,4.3-0.8,5.9-2.4l1.2-1.2l6.2-6.2c0,0,0,0,0,0l0.5-0.5c0.4-0.4,0.7-0.9,0.8-1.3c1.7-3.2,1.3-7.2-1.4-9.9l-8.8-8.8l1.3-1.3
		c0.1-0.1,0.2-0.1,0.2-0.2l5.6-5.6c-1.4-1.1-3.2-1.7-5-1.7h0c-2.2,0-4.3,0.9-5.9,2.4l-7.5,7.5L22.2,24.9z M34.3,22.9l1.1-1.1
		l8.8,8.8c0.5,0.5,0.5,1.2,0,1.7l-7.4,7.4c-0.5,0.5-1.2,0.5-1.7,0l-7.9-7.9c-0.3-0.3-0.3-0.6-0.3-0.8c0-0.2,0-0.5,0.3-0.8L34.3,22.9
		z"/>
	<path class="st0" d="M64.2,26.1L50.7,12.7l-5.1,5.1l13.4,13.4c0.5,0.5,0.5,1.2,0,1.7L36.4,55.5l1.9,1.9l-2-2
		c-0.3,0.3-0.6,0.3-0.8,0.3c-0.2,0-0.5,0-0.8-0.3L10.9,31.7c-0.5-0.5-0.5-1.2,0-1.7l15.5-15.5l0,0l5.8-5.8c-3.3-2.3-8-2.2-10.9,0.7
		L5.8,24.9c-3.2,3.2-3.2,8.5,0,11.8l23.8,23.8c1.6,1.6,3.7,2.4,5.9,2.4h0c2.2,0,4.3-0.9,5.9-2.4l0.1,0.1l22.7-22.7
		C67.4,34.6,67.4,29.4,64.2,26.1"/>
</g>
</svg>
