<?xml version="1.0" encoding="utf-8"?>
<!-- Generator: Adobe Illustrator 19.2.1, SVG Export Plug-In . SVG Version: 6.00 Build 0)  -->
<svg version="1.1" id="Layer_1" xmlns="http://www.w3.org/2000/svg" xmlns:xlink="http://www.w3.org/1999/xlink" x="0px" y="0px"
	 viewBox="0 0 70 70" style="enable-background:new 0 0 70 70;" xml:space="preserve">
<!-- style type="text/css">
	.st0{clip-path:url(#SVGID_2_);fill:#1A2857;}
</style -->
<g>
	<defs>
		<rect id="SVGID_1_" x="5.2" y="5.2" width="59.7" height="59.7"/>
	</defs>
	<clipPath id="SVGID_2_">
		<use xlink:href="#SVGID_1_"  style="overflow:visible;"/>
	</clipPath>
	<path class="st0" d="M49.7,37.4h-5.1c-2.7,0-3.4-1.6-1.5-3.5c1.9-1.9,3.6-3.6,3.6-3.6c0.1-0.1,0.1-0.2,0-0.2
		c-0.1-0.1-1.6-1.6-3.5-3.5c-1.8-1.8-3.4-3.4-3.4-3.4c-0.1-0.1-0.2-0.1-0.2,0c-0.1,0.1-1.7,1.7-3.6,3.6c-1.9,1.9-3.5,1.3-3.5-1.5
		v-5.1c0-0.1-0.1-0.2-0.2-0.2h-4.9h-4.9c-0.1,0-0.2,0.1-0.2,0.2v5.1c0,2.7-1.6,3.4-3.5,1.5c-1.9-1.9-3.6-3.6-3.6-3.6
		c-0.1-0.1-0.2-0.1-0.2,0c-0.1,0.1-1.6,1.6-3.4,3.4c-1.8,1.8-3.4,3.4-3.4,3.5c-0.1,0.1-0.1,0.2,0,0.2c0.1,0.1,1.7,1.7,3.6,3.6
		c1.9,1.9,1.3,3.5-1.5,3.5H5.3c-0.1,0-0.2,0.1-0.2,0.2v4.9v4.9c0,0.1,0.1,0.2,0.2,0.2h5.1c2.7,0,3.4,1.6,1.5,3.5
		c-1.9,1.9-3.6,3.6-3.6,3.6c-0.1,0.1-0.1,0.2,0,0.2c0.1,0.1,1.6,1.6,3.4,3.5c1.8,1.8,3.4,3.4,3.4,3.5c0.1,0.1,0.2,0.1,0.2,0
		c0.1-0.1,1.7-1.7,3.6-3.6c1.9-1.9,3.5-1.3,3.5,1.5v5.1c0,0.1,0.1,0.2,0.2,0.2h4.9h4.9c0.1,0,0.2-0.1,0.2-0.2v-5.1
		c0-2.7,1.6-3.4,3.5-1.5c1.9,1.9,3.6,3.6,3.6,3.6c0.1,0.1,0.2,0.1,0.2,0c0.1-0.1,1.6-1.6,3.4-3.5c1.8-1.8,3.4-3.4,3.5-3.5
		c0.1-0.1,0.1-0.2,0-0.2c-0.1-0.1-1.7-1.7-3.6-3.6c-1.9-1.9-1.3-3.5,1.4-3.5h5.1c0.1,0,0.2-0.1,0.2-0.2v-4.9v-4.9
		C49.9,37.5,49.8,37.4,49.7,37.4 M27.9,49.8c-4.1,0-7.5-3.4-7.5-7.5c0-4.2,3.4-7.5,7.5-7.5c4.1,0,7.5,3.4,7.5,7.5
		C35.4,46.5,32,49.8,27.9,49.8"/>
	<path class="st0" d="M64.8,13.8h-2.6c-1.4,0-1.7-0.8-0.7-1.8c1-1,1.8-1.8,1.8-1.8c0,0,0-0.1,0-0.1c0,0-0.8-0.8-1.7-1.7
		c-0.9-0.9-1.7-1.7-1.7-1.7c0,0-0.1,0-0.1,0c0,0-0.8,0.8-1.8,1.8c-1,1-1.7,0.6-1.7-0.7V5.2c0,0,0-0.1-0.1-0.1h-2.4h-2.4
		c0,0-0.1,0-0.1,0.1v2.6c0,1.4-0.8,1.7-1.8,0.7c-1-1-1.8-1.8-1.8-1.8c0,0-0.1,0-0.1,0c0,0-0.8,0.8-1.7,1.7c-0.9,0.9-1.7,1.7-1.7,1.7
		c0,0,0,0.1,0,0.1c0,0,0.8,0.8,1.8,1.8c1,1,0.6,1.8-0.7,1.8h-2.6c0,0-0.1,0-0.1,0.1c0,0,0,1.1,0,2.4v2.4c0,0,0,0.1,0.1,0.1
		c0,0,1.2,0,2.6,0c1.4,0,1.7,0.8,0.7,1.7c-1,1-1.8,1.8-1.8,1.8c0,0,0,0.1,0,0.1c0,0,0.8,0.8,1.7,1.7c0.9,0.9,1.7,1.7,1.7,1.7
		c0,0,0.1,0,0.1,0c0,0,0.8-0.8,1.8-1.8c1-1,1.8-0.6,1.8,0.7v2.6c0,0,0,0.1,0.1,0.1h2.4h2.4c0,0,0.1,0,0.1-0.1v-2.6
		c0-1.4,0.8-1.7,1.7-0.7c1,1,1.8,1.8,1.8,1.8c0,0,0.1,0,0.1,0c0,0,0.8-0.8,1.7-1.7c0.9-0.9,1.7-1.7,1.7-1.7c0,0,0-0.1,0-0.1
		c0,0-0.8-0.8-1.8-1.8c-1-1-0.6-1.8,0.7-1.8h2.6c0,0,0.1,0,0.1-0.1v-2.4L64.8,13.8C64.8,13.9,64.8,13.8,64.8,13.8 M56.5,19
		c-1.5,1.5-3.8,1.5-5.3,0c-1.5-1.5-1.5-3.8,0-5.3c1.5-1.5,3.8-1.5,5.3,0C58,15.2,58,17.6,56.5,19"/>
</g>
</svg>
