<?xml version="1.0" encoding="utf-8"?>
<!-- Generator: Adobe Illustrator 19.2.1, SVG Export Plug-In . SVG Version: 6.00 Build 0)  -->
<svg version="1.1" id="Layer_1" xmlns="http://www.w3.org/2000/svg" xmlns:xlink="http://www.w3.org/1999/xlink" x="0px" y="0px"
	 viewBox="0 0 53.7 82.1" style="enable-background:new 0 0 53.7 82.1;" xml:space="preserve">
<!-- style type="text/css">
	.st0{clip-path:url(#SVGID_2_);fill:#1A2857;}
</style -->
<g>
	<defs>
		<rect id="SVGID_1_" width="53.7" height="82.1"/>
	</defs>
	<clipPath id="SVGID_2_">
		<use xlink:href="#SVGID_1_"  style="overflow:visible;"/>
	</clipPath>
	<path class="st0" d="M46.5,39.1H7.2v-1.9c0-0.4,0.2-0.9,1-1.2c0.7-0.2,1.6-0.7,1.8-1.9c0.6-3.8,2.8-7.3,6-9.9
		c2-1.6,4.2-2.8,6.6-3.4V20c0-0.6,0.4-1.1,0.9-1.3v-7.1c-0.5-0.2-0.9-0.7-0.9-1.3C22.4,9.6,23,9,23.8,9h0.4c0.1-1.1,1.5-1.6,1.7-3.1
		c0.1-1-0.4-2.5-0.4-3.5c0-1.3,0.7-2.4,1.4-2.4c0.7,0,1.4,1.1,1.4,2.4c0,1.2-0.5,2.5-0.4,3.5c0.2,1.5,1.6,2,1.7,3.1h0.4
		c0.7,0,1.3,0.6,1.3,1.3c0,0.6-0.4,1.1-0.9,1.3v7.1c0.5,0.2,0.9,0.7,0.9,1.3v0.9c2.4,0.7,4.6,1.8,6.6,3.4c3.2,2.6,5.3,6.1,6,9.9
		c0.2,1.1,1.1,1.7,1.8,1.9c0.8,0.3,1,0.8,1,1.2V39.1z"/>
	<path class="st0" d="M5.3,49.4v10.8h7.1v-7.8c0-1.2,1.6-2.1,2.8-2.1c1.2,0,2.7,0.9,2.7,2.1v7.8h6.1v-7.8c0-1.2,1.5-2.1,2.7-2.1
		c1.2,0,2.8,0.9,2.8,2.1v7.8h6.1v-7.8c0-1.2,1.7-2.1,2.9-2.1c1.2,0,2.6,0.9,2.6,2.1v7.8h7.5V49.4c0.7-0.3,1.2-1,1.2-1.8
		c0-1.1-0.9-1.9-1.9-1.9H6c-1.1,0-1.9,0.9-1.9,1.9C4.1,48.5,4.6,49.2,5.3,49.4"/>
	<path class="st0" d="M52.3,70.6c0.8-0.3,1.3-1,1.3-1.8c0-1.1-0.9-1.9-1.9-1.9H1.9c-1.1,0-1.9,0.9-1.9,1.9c0,0.9,0.5,1.6,1.3,1.8
		L1.2,82.1h5.4v-8.5c0-1,1.2-1.9,2.8-1.9c1.5,0,2.8,0.8,2.8,1.9v8.5h6.2v-8.5c0-1,1.2-1.9,2.8-1.9c1.5,0,2.8,0.8,2.8,1.9v8.5h6v-8.5
		c0-1,1.2-1.9,2.8-1.9c1.5,0,2.8,0.8,2.8,1.9v8.5h6.2v-8.5c0-1,1.2-1.9,2.8-1.9c1.5,0,2.8,0.8,2.8,1.9v8.5h5.2L52.3,70.6z"/>
</g>
</svg>
